Approaching Space
…
As shown, ASKAP, CHIME, and Parkes have discovered the most FRBs so far. ASKAP (Australian Square Kilometer Array Pathfinder) has 36 individual parabolic antennas in sync to cover a much broader map of FRBs. CHIME (Canadian Hydrogen Intensity Mapping Experiment) works in a similar way with 4 wide parabolic reflectors. The Parkes radio telescope however, is a standalone telescope located in Australia along with ASKAP.

I wanted to continue with looking at the top 10 widest radio bursts in the data set and found

raw_frbs %>%
  arrange(desc(rmp_width)) %>%
  slice(1:10) %>% #only showing first ten
  select(..frb_name, utc, telescope, rmp_width)

## # A tibble: 57 x 4
## # Groups:   telescope [11]
##    ..frb_name  utc                     telescope rmp_width
##    <chr>        <chr>                   <fct>         <dbl>
##  1 FRB20190614D 2019/06/14 01:13:02.010 VLA            5   
##  2 FRB170922    2017/09/22 11:23:33.400 UTMOST        34.1 
##  3 FRB160317    2016/03/17 09:00:36.530 UTMOST        21   
##  4 FRB160608    2016/06/08 03:53:01.088 UTMOST         9   
##  5 FRB181016    2018/10/16 04:16:56.300 UTMOST         8.6 
##  6 FRB160410    2016/04/10 08:33:39.680 UTMOST         4   
##  7 FRB180528    2018/05/28 04:24:00.900 UTMOST         2   
##  8 FRB181228    2018/12/28 13:48:50.100 UTMOST         1.24
##  9 FRB170827    2017/08/27 16:20:18.000 UTMOST         0.4 
## 10 FRB181017    2018/10/17 10:24:37.400 UTMOST         0.32
## # ... with 47 more rows
…
